[
    {
        "title":"Virtual Olyq 2021 Circle Spirit",
        "url": "./assets/frames/images/olyq_frame_1.png"
    },
    {
        "title":"Virtual Olyq 2021 Square",
        "url": "./assets/frames/images/olyq_frame_2.png"
    }
]